%YAML 1.1
%TAG !u! tag:unity3d.com,2011:
--- !u!78 &1
TagManager:
  serializedVersion: 2
  tags:
  - Enemy
  - Player1
  - Player2
  - Ground
  - Border
  - Head
  - Feet
  - Feet2
  - Platform
  - Counter
  - Stand1
  - Stand2
  - Sound
  - Player2Cinematic
  - Player1Cinematic
  - Pause
  - AI
  - AI2
  - video
  layers:
  - Default
  - TransparentFX
  - Ignore Raycast
  - 
  - Water
  - UI
  - 
  - 
  - Player
  - 
  - 
  - 
  - 
  - 
  - 
  - 
  - 
  - 
  - 
  - 
  - 
  - 
  - 
  - 
  - 
  - 
  - 
  - 
  - 
  - 
  - 
  - 
  m_SortingLayers:
  - name: Background
    uniqueID: 1126048707
    locked: 0
  - name: Default
    uniqueID: 0
    locked: 0
  - name: Player
    uniqueID: 2391794789
    locked: 0
  - name: Foreground
    uniqueID: 1581722325
    locked: 0
